\relax 
\citation{hitchin_1991}
\citation{hitchin_2015}
\citation{*}
\bibstyle{ieeetr}
\bibdata{project.bib}
\bibcite{hitchin_1991}{1}
\bibcite{hitchin_2015}{2}
\bibcite{gibbons_1978}{3}
\bibcite{biquard_2015}{4}
\bibcite{plebanksi_1975}{5}
\bibcite{lebrun_1991}{6}
\bibcite{tod_1995}{7}
\bibcite{ding_2011}{8}
\citation{gibbons_1978}
\citation{hitchin_2015,biquard_2015}
\citation{biquard_2015}
\citation{plebanksi_1975}
\citation{lebrun_1991}
\citation{tod_1995}
\citation{ding_2011}
\pgfsyspdfmark {pgfid1}{1799790}{816750}
\newlabel{rh_metric}{{}{2}}
\newlabel{rh_metric@cref}{{}{2}}
