\relax 
\providecommand\hyper@newdestlabel[2]{}
\providecommand\HyperFirstAtBeginDocument{\AtBeginDocument}
\HyperFirstAtBeginDocument{\ifx\hyper@anchor\@undefined
\global\let\oldcontentsline\contentsline
\gdef\contentsline#1#2#3#4{\oldcontentsline{#1}{#2}{#3}}
\global\let\oldnewlabel\newlabel
\gdef\newlabel#1#2{\newlabelxx{#1}#2}
\gdef\newlabelxx#1#2#3#4#5#6{\oldnewlabel{#1}{{#2}{#3}}}
\AtEndDocument{\ifx\hyper@anchor\@undefined
\let\contentsline\oldcontentsline
\let\newlabel\oldnewlabel
\fi}
\fi}
\global\let\hyper@last\relax 
\gdef\HyperFirstAtBeginDocument#1{#1}
\providecommand*\HyPL@Entry[1]{}
\HyPL@Entry{0<</P(1)>>}
\@writefile{toc}{\beamer@endinputifotherversion {3.36pt}}
\@writefile{nav}{\beamer@endinputifotherversion {3.36pt}}
\@writefile{nav}{\headcommand {\slideentry {0}{0}{1}{1/1}{}{0}}}
\@writefile{nav}{\headcommand {\beamer@framepages {1}{1}}}
\HyPL@Entry{1<</P(2)>>}
\@writefile{nav}{\headcommand {\slideentry {0}{0}{2}{2/2}{}{0}}}
\@writefile{nav}{\headcommand {\beamer@framepages {2}{2}}}
\HyPL@Entry{2<</P(3)>>}
\@writefile{toc}{\beamer@sectionintoc {1}{First Main Section}{3}{0}{1}}
\@writefile{nav}{\headcommand {\sectionentry {1}{First Main Section}{3}{First Main Section}{0}}}
\@writefile{nav}{\headcommand {\beamer@sectionpages {1}{2}}}
\@writefile{nav}{\headcommand {\beamer@subsectionpages {1}{2}}}
\@writefile{toc}{\beamer@subsectionintoc {1}{1}{First Subsection}{3}{0}{1}}
\@writefile{nav}{\headcommand {\beamer@subsectionentry {0}{1}{1}{3}{First Subsection}}\headcommand {\beamer@subsectionpages {3}{2}}}
\@writefile{nav}{\headcommand {\slideentry {1}{1}{1}{3/3}{First Subsection}{0}}}
\@writefile{nav}{\headcommand {\beamer@framepages {3}{3}}}
\HyPL@Entry{3<</P(4)>>}
\@writefile{toc}{\beamer@subsectionintoc {1}{2}{Second Subsection}{4}{0}{1}}
\@writefile{nav}{\headcommand {\beamer@subsectionentry {0}{1}{2}{4}{Second Subsection}}\headcommand {\beamer@subsectionpages {3}{3}}}
\@writefile{nav}{\headcommand {\slideentry {1}{2}{1}{4/9}{Second Subsection}{0}}}
\@writefile{nav}{\headcommand {\beamer@framepages {4}{9}}}
\HyPL@Entry{9<</P(5)>>}
\@writefile{toc}{\beamer@sectionintoc {2}{Second Main Section}{10}{0}{2}}
\@writefile{nav}{\headcommand {\sectionentry {2}{Second Main Section}{10}{Second Main Section}{0}}}
\@writefile{nav}{\headcommand {\beamer@sectionpages {3}{9}}}
\@writefile{nav}{\headcommand {\beamer@subsectionpages {4}{9}}}
\@writefile{toc}{\beamer@subsectionintoc {2}{1}{Another Subsection}{10}{0}{2}}
\@writefile{nav}{\headcommand {\beamer@subsectionentry {0}{2}{1}{10}{Another Subsection}}\headcommand {\beamer@subsectionpages {10}{9}}}
\@writefile{nav}{\headcommand {\slideentry {2}{1}{1}{10/10}{Another Subsection}{0}}}
\@writefile{nav}{\headcommand {\beamer@framepages {10}{10}}}
\HyPL@Entry{10<</P(6)>>}
\@writefile{nav}{\headcommand {\sectionentry {3}{Summary}{11}{Summary}{0}}}
\@writefile{nav}{\headcommand {\beamer@sectionpages {10}{10}}}
\@writefile{nav}{\headcommand {\beamer@subsectionpages {10}{10}}}
\@writefile{nav}{\headcommand {\slideentry {3}{0}{1}{11/11}{}{0}}}
\@writefile{nav}{\headcommand {\beamer@framepages {11}{11}}}
\bibcite{Author1990}{\hyperlink {beamerbibAuthor1990}{1}}
\bibcite{Someone2000}{\hyperlink {beamerbibSomeone2000}{2}}
\HyPL@Entry{11<</P(7)>>}
\@writefile{nav}{\headcommand {\partentry {\translate  {Appendix}}{1}}}
\@writefile{nav}{\headcommand {\beamer@partpages {1}{11}}}
\@writefile{nav}{\headcommand {\beamer@sectionpages {11}{11}}}
\@writefile{nav}{\headcommand {\beamer@subsectionpages {11}{11}}}
\@writefile{nav}{\headcommand {\beamer@appendixpages {12}}}
\@writefile{nav}{\headcommand {\sectionentry {4}{\translate  {Appendix}}{12}{\translate  {Appendix}}{1}}}
\@writefile{nav}{\headcommand {\beamer@sectionpages {12}{11}}}
\@writefile{nav}{\headcommand {\beamer@subsectionpages {12}{11}}}
\@writefile{nav}{\headcommand {\beamer@subsectionentry {1}{4}{1}{12}{For Further Reading}}\headcommand {\beamer@subsectionpages {12}{11}}}
\@writefile{nav}{\headcommand {\slideentry {4}{1}{1}{12/12}{For Further Reading}{1}}}
\@writefile{nav}{\headcommand {\beamer@framepages {12}{12}}}
\@writefile{nav}{\headcommand {\beamer@partpages {12}{12}}}
\@writefile{nav}{\headcommand {\beamer@subsectionpages {12}{12}}}
\@writefile{nav}{\headcommand {\beamer@sectionpages {12}{12}}}
\@writefile{nav}{\headcommand {\beamer@documentpages {12}}}
\@writefile{nav}{\headcommand {\def \inserttotalframenumber {7}}}
