\beamer@endinputifotherversion {3.36pt}
\beamer@sectionintoc {1}{First Main Section}{3}{0}{1}
\beamer@subsectionintoc {1}{1}{First Subsection}{3}{0}{1}
\beamer@subsectionintoc {1}{2}{Second Subsection}{4}{0}{1}
\beamer@sectionintoc {2}{Second Main Section}{10}{0}{2}
\beamer@subsectionintoc {2}{1}{Another Subsection}{10}{0}{2}
