This is BibTeX, Version 0.99d (TeX Live 2015/Debian)
Capacity: max_strings=35307, hash_size=35307, hash_prime=30011
The top-level auxiliary file: Ben_Brown_Final_Report3.aux
The style file: ieeetr.bst
Database file #1: BenBrown_Final.bib
I was expecting a `,' or a `}'---line 144 of file BenBrown_Final.bib
 :     
 :     pages = {1587},
(Error may have been on previous line)
I'm skipping whatever remains of this entry
I was expecting a `,' or a `}'---line 154 of file BenBrown_Final.bib
 :     
 :     pages = "45",
(Error may have been on previous line)
I'm skipping whatever remains of this entry
Repeated entry---line 157 of file BenBrown_Final.bib
 : @article{hitchin_1987
 :                      ,
I'm skipping whatever remains of this entry
You're missing a field part---line 218 of file BenBrown_Final.bib
 :    eid = 
 :          ,
I'm skipping whatever remains of this entry
Repeated entry---line 249 of file BenBrown_Final.bib
 : @article{gibbons_1978
 :                      ,
I'm skipping whatever remains of this entry
I was expecting a `,' or a `}'---line 402 of file BenBrown_Final.bib
 :     
 :     pages = "187",
(Error may have been on previous line)
I'm skipping whatever remains of this entry
Too many commas in name 1 of "{da Silva}, C., Guillemin, V. and {Woodward}, C." for entry dasilva_2000
while executing---line 969 of file ieeetr.bst
Too many commas in name 1 of "{Ashtekar}, A., {Jacobson}, T. and {Smolin}, L." for entry ashtekar_1988
while executing---line 969 of file ieeetr.bst
Name 1 in "N. J. Hitchin, A. Karlhede, U. Lindstr{\"o}m, and M. Ro\v{c}ek" has a comma at the end for entry hitchin_1987
while executing---line 969 of file ieeetr.bst
Name 1 in "{Capovilla}, R. {Dell}, J., and {Jacobson}, T." has a comma at the end for entry capovilla_1989
while executing---line 969 of file ieeetr.bst
Name 3 in "{Capovilla}, R. and {Dell}, J. and {Jacobson}, T., and {Mason}, L." has a comma at the end for entry capovilla_1991
while executing---line 969 of file ieeetr.bst
Warning--empty journal in grant_1997
You've used 33 entries,
            1876 wiz_defined-function locations,
            674 strings with 7833 characters,
and the built_in function-call counts, 6697 in all, are:
= -- 656
> -- 217
< -- 0
+ -- 89
- -- 56
* -- 414
:= -- 989
add.period$ -- 35
call.type$ -- 33
change.case$ -- 32
chr.to.int$ -- 0
cite$ -- 34
duplicate$ -- 437
empty$ -- 669
format.name$ -- 56
if$ -- 1691
int.to.chr$ -- 0
int.to.str$ -- 33
missing$ -- 35
newline$ -- 104
num.names$ -- 35
pop$ -- 97
preamble$ -- 1
purify$ -- 0
quote$ -- 0
skip$ -- 251
stack$ -- 0
substring$ -- 138
swap$ -- 170
text.length$ -- 0
text.prefix$ -- 0
top$ -- 0
type$ -- 0
warning$ -- 1
while$ -- 56
width$ -- 35
write$ -- 333
(There were 11 error messages)
