\relax 
\providecommand\hyper@newdestlabel[2]{}
\providecommand\HyperFirstAtBeginDocument{\AtBeginDocument}
\HyperFirstAtBeginDocument{\ifx\hyper@anchor\@undefined
\global\let\oldcontentsline\contentsline
\gdef\contentsline#1#2#3#4{\oldcontentsline{#1}{#2}{#3}}
\global\let\oldnewlabel\newlabel
\gdef\newlabel#1#2{\newlabelxx{#1}#2}
\gdef\newlabelxx#1#2#3#4#5#6{\oldnewlabel{#1}{{#2}{#3}}}
\AtEndDocument{\ifx\hyper@anchor\@undefined
\let\contentsline\oldcontentsline
\let\newlabel\oldnewlabel
\fi}
\fi}
\global\let\hyper@last\relax 
\gdef\HyperFirstAtBeginDocument#1{#1}
\providecommand*\HyPL@Entry[1]{}
\citation{hitchin_2015}
\citation{biquard_2015}
\citation{dasilva_2000}
\citation{baykur_2006}
\citation{hitchin_2015}
\citation{biquard_2015}
\citation{ashtekar_1988}
\citation{gibbons_2013}
\HyPL@Entry{0<</S/D>>}
\@writefile{toc}{\contentsline {section}{\numberline {I.}Introduction}{1}{section.1}}
\citation{hitchin_1991}
\citation{berger_1955}
\citation{hitchin_1991}
\citation{dancer_1994}
\citation{eguchi_1978}
\citation{gibbons_1978}
\citation{hitchin_1987}
\@writefile{toc}{\contentsline {section}{\numberline {II.}Background Theory}{2}{section.2}}
\@writefile{toc}{\contentsline {subsection}{\numberline {A.}Hyperk\"ahler Manifolds}{2}{subsection.2.1}}
\citation{eguchi_1980}
\@writefile{toc}{\contentsline {subsection}{\numberline {B.}Self-Dual Gravity in Terms of the Self-Dual Spin Connection}{3}{subsection.2.2}}
\newlabel{riemann}{{3}{3}{Self-Dual Gravity in Terms of the Self-Dual Spin Connection}{equation.2.3}{}}
\newlabel{riemann@cref}{{[equation][3][]3}{3}}
\citation{eguchi_1980}
\citation{capovilla_1993}
\citation{capovilla_1989}
\newlabel{action}{{7}{4}{Self-Dual Gravity in Terms of the Self-Dual Spin Connection}{equation.2.7}{}}
\newlabel{action@cref}{{[equation][7][]7}{4}}
\newlabel{min_sym}{{8a}{4}{Self-Dual Gravity in Terms of the Self-Dual Spin Connection}{equation.8.1}{}}
\newlabel{min_sym@cref}{{[subequation][1][8]8a}{4}}
\newlabel{min_form}{{8b}{4}{Self-Dual Gravity in Terms of the Self-Dual Spin Connection}{equation.8.2}{}}
\newlabel{min_form@cref}{{[subequation][2][8]8b}{4}}
\newlabel{min_vol}{{8c}{4}{Self-Dual Gravity in Terms of the Self-Dual Spin Connection}{equation.8.3}{}}
\newlabel{min_vol@cref}{{[subequation][3][8]8c}{4}}
\newlabel{min_conn}{{8d}{4}{Self-Dual Gravity in Terms of the Self-Dual Spin Connection}{equation.8.4}{}}
\newlabel{min_conn@cref}{{[subequation][4][8]8d}{4}}
\citation{capovilla_1989}
\citation{capovilla_1993}
\citation{cahen_1967}
\citation{cahen_1967}
\newlabel{prop_vol_form}{{9a}{5}{Self-Dual Gravity in Terms of the Self-Dual Spin Connection}{equation.9.1}{}}
\newlabel{prop_vol_form@cref}{{[subequation][1][9]9a}{5}}
\newlabel{cov_derivative}{{9b}{5}{Self-Dual Gravity in Terms of the Self-Dual Spin Connection}{equation.9.2}{}}
\newlabel{cov_derivative@cref}{{[subequation][2][9]9b}{5}}
\newlabel{traceless}{{9c}{5}{Self-Dual Gravity in Terms of the Self-Dual Spin Connection}{equation.9.3}{}}
\newlabel{traceless@cref}{{[subequation][3][9]9c}{5}}
\newlabel{weyl}{{9d}{5}{Self-Dual Gravity in Terms of the Self-Dual Spin Connection}{equation.9.4}{}}
\newlabel{weyl@cref}{{[subequation][4][9]9d}{5}}
\newlabel{decomposable}{{10a}{5}{Self-Dual Gravity in Terms of the Self-Dual Spin Connection}{equation.10.1}{}}
\newlabel{decomposable@cref}{{[subequation][1][10]10a}{5}}
\newlabel{orthogonal}{{10b}{5}{Self-Dual Gravity in Terms of the Self-Dual Spin Connection}{equation.10.2}{}}
\newlabel{orthogonal@cref}{{[subequation][2][10]10b}{5}}
\newlabel{frame}{{10c}{5}{Self-Dual Gravity in Terms of the Self-Dual Spin Connection}{equation.10.3}{}}
\newlabel{frame@cref}{{[subequation][3][10]10c}{5}}
\citation{plebanski_1975}
\citation{hooft_1976}
\citation{hooft_1976}
\newlabel{z1z2}{{11}{6}{Self-Dual Gravity in Terms of the Self-Dual Spin Connection}{equation.0.11}{}}
\newlabel{z1z2@cref}{{[equation][11][]11}{6}}
\newlabel{z3}{{12}{6}{Self-Dual Gravity in Terms of the Self-Dual Spin Connection}{equation.0.12}{}}
\newlabel{z3@cref}{{[equation][12][]12}{6}}
\newlabel{sd_form}{{13}{6}{Self-Dual Gravity in Terms of the Self-Dual Spin Connection}{equation.0.13}{}}
\newlabel{sd_form@cref}{{[equation][13][]13}{6}}
\newlabel{hooft1}{{14}{6}{Self-Dual Gravity in Terms of the Self-Dual Spin Connection}{equation.0.14}{}}
\newlabel{hooft1@cref}{{[equation][14][]14}{6}}
\newlabel{hooft2}{{15a}{6}{Self-Dual Gravity in Terms of the Self-Dual Spin Connection}{equation.15.1}{}}
\newlabel{hooft2@cref}{{[subequation][1][15]15a}{6}}
\newlabel{hooft3}{{15b}{6}{Self-Dual Gravity in Terms of the Self-Dual Spin Connection}{equation.15.2}{}}
\newlabel{hooft3@cref}{{[subequation][2][15]15b}{6}}
\newlabel{projection}{{15c}{6}{Self-Dual Gravity in Terms of the Self-Dual Spin Connection}{equation.15.3}{}}
\newlabel{projection@cref}{{[subequation][3][15]15c}{6}}
\citation{capovilla_1993}
\citation{capovilla_1993}
\citation{capovilla_1991}
\citation{capovilla_1993}
\citation{solitons}
\citation{solitons}
\citation{hashimoto_1997}
\citation{donaldson}
\newlabel{hk_conditiona}{{16a}{8}{Self-Dual Gravity in Terms of the Self-Dual Spin Connection}{equation.16.1}{}}
\newlabel{hk_conditiona@cref}{{[subequation][1][16]16a}{8}}
\newlabel{hk_conditionb}{{16b}{8}{Self-Dual Gravity in Terms of the Self-Dual Spin Connection}{equation.16.2}{}}
\newlabel{hk_conditionb@cref}{{[subequation][2][16]16b}{8}}
\newlabel{cartan}{{19}{8}{Self-Dual Gravity in Terms of the Self-Dual Spin Connection}{equation.0.19}{}}
\newlabel{cartan@cref}{{[equation][19][]19}{8}}
\citation{hashimoto_1997}
\citation{ootsuka_1998}
\citation{joyce_1995}
\citation{grant_1997}
\citation{gibbons_1978}
\newlabel{half_flat}{{20}{9}{Self-Dual Gravity in Terms of the Self-Dual Spin Connection}{equation.0.20}{}}
\newlabel{half_flat@cref}{{[equation][20][]20}{9}}
\newlabel{asj}{{21}{9}{Self-Dual Gravity in Terms of the Self-Dual Spin Connection}{equation.0.21}{}}
\newlabel{asj@cref}{{[equation][21][]21}{9}}
\@writefile{toc}{\contentsline {subsection}{\numberline {C.}Examples of Hyperk\"ahler Manifolds}{9}{subsection.2.3}}
\newlabel{monopole}{{22}{9}{Gibbons-Hawking Ansatz}{equation.0.22}{}}
\newlabel{monopole@cref}{{[equation][22][]22}{9}}
\citation{solitons}
\citation{solitons}
\newlabel{gh_metric}{{23}{10}{Gibbons-Hawking Ansatz}{equation.0.23}{}}
\newlabel{gh_metric@cref}{{[equation][23][]23}{10}}
\newlabel{gh_forms}{{24}{10}{Gibbons-Hawking Ansatz}{equation.0.24}{}}
\newlabel{gh_forms@cref}{{[equation][24][]24}{10}}
\citation{tod_1995}
\citation{lebrun_1991}
\citation{park_1990}
\citation{bakas_1995}
\citation{plebanski_1975}
\citation{park_1990}
\newlabel{su_infty}{{25}{11}{Real Heaven Background}{equation.0.25}{}}
\newlabel{su_infty@cref}{{[equation][25][]25}{11}}
\newlabel{rh_metric}{{26}{11}{Real Heaven Background}{equation.0.26}{}}
\newlabel{rh_metric@cref}{{[equation][26][]26}{11}}
\newlabel{su_k1}{{27}{11}{Real Heaven Background}{equation.0.27}{}}
\newlabel{su_k1@cref}{{[equation][27][]27}{11}}
\newlabel{su_k23}{{28}{11}{Real Heaven Background}{equation.0.28}{}}
\newlabel{su_k23@cref}{{[equation][28][]28}{11}}
\citation{lebrun_1991}
\citation{lebrun_1991}
\citation{ashtekar_1987}
\citation{mason_1989}
\citation{donaldson}
\citation{biquard_2015}
\newlabel{lin_boyer}{{29}{12}{}{equation.0.29}{}}
\newlabel{lin_boyer@cref}{{[equation][29][]29}{12}}
\@writefile{toc}{\contentsline {subsection}{\numberline {D.}The Ashtekar-Jacobson-Smolin Construction of Hyperk\"ahler Manifolds}{12}{subsection.2.4}}
\newlabel{nahm}{{30}{12}{The Ashtekar-Jacobson-Smolin Construction of Hyperk\"ahler Manifolds}{equation.0.30}{}}
\newlabel{nahm@cref}{{[equation][30][]30}{12}}
\citation{donaldson}
\citation{donaldson}
\citation{ashtekar_1988}
\citation{donaldson}
\citation{hitchin_2015}
\@writefile{toc}{\contentsline {section}{\numberline {III.}Results}{14}{section.3}}
\@writefile{toc}{\contentsline {subsection}{\numberline {A.}A Canonical Example}{14}{subsection.3.1}}
\newlabel{hk_involution}{{33a}{14}{A Canonical Example}{equation.33.1}{}}
\newlabel{hk_involution@cref}{{[subequation][1][33]33a}{14}}
\newlabel{pullback_GH}{{34}{14}{A Canonical Example}{equation.0.34}{}}
\newlabel{pullback_GH@cref}{{[equation][34][]34}{14}}
\newlabel{contact}{{35}{14}{A Canonical Example}{equation.0.35}{}}
\newlabel{contact@cref}{{[equation][35][]35}{14}}
\citation{hitchin_2015}
\citation{biquard_2015}
\@writefile{toc}{\contentsline {subsection}{\numberline {B.}The Definition and an Existence and Uniqueness Theorem for Hyperk\"ahler Manifolds}{15}{subsection.3.2}}
\newlabel{hk_def}{{6}{15}{\cite {hitchin_2015,biquard_2015}}{thm.6}{}}
\newlabel{hk_def@cref}{{[defn][6][]6}{15}}
\newlabel{def_involution}{{36}{15}{\cite {hitchin_2015,biquard_2015}}{equation.0.36}{}}
\newlabel{def_involution@cref}{{[equation][36][]36}{15}}
\newlabel{folded_kforms}{{37a}{16}{The Definition and an Existence and Uniqueness Theorem for Hyperk\"ahler Manifolds}{equation.37.1}{}}
\newlabel{folded_kforms@cref}{{[subequation][1][37]37a}{16}}
\newlabel{hk_vanishing1}{{38a}{16}{The Definition and an Existence and Uniqueness Theorem for Hyperk\"ahler Manifolds}{equation.38.1}{}}
\newlabel{hk_vanishing1@cref}{{[subequation][1][38]38a}{16}}
\newlabel{hk_vanishing2}{{38b}{16}{The Definition and an Existence and Uniqueness Theorem for Hyperk\"ahler Manifolds}{equation.38.2}{}}
\newlabel{hk_vanishing2@cref}{{[subequation][2][38]38b}{16}}
\citation{bryant_2004}
\citation{bryant_2004}
\citation{biquard_2015}
\newlabel{k_pullbacks}{{39}{17}{The Definition and an Existence and Uniqueness Theorem for Hyperk\"ahler Manifolds}{equation.0.39}{}}
\newlabel{k_pullbacks@cref}{{[subequation][39][]39}{17}}
\newlabel{bryant}{{7}{17}{Bryant \cite {bryant_2004}}{thm.7}{}}
\newlabel{bryant@cref}{{[lem][7][]7}{17}}
\@writefile{toc}{\contentsline {subsection}{\numberline {C.}Contact Geometry of the Folded Gibbons-Hawking Manifold}{18}{subsection.3.3}}
\@writefile{toc}{\contentsline {subsection}{\numberline {D.}Folding of the Real Heaven Background}{19}{subsection.3.4}}
\citation{tod_1995}
\citation{tod_1995}
\citation{tod_1995}
\newlabel{su_sol}{{44a}{20}{Folding of the Real Heaven Background}{equation.44.1}{}}
\newlabel{su_sol@cref}{{[subequation][1][44]44a}{20}}
\newlabel{liouville}{{44b}{20}{Folding of the Real Heaven Background}{equation.44.2}{}}
\newlabel{liouville@cref}{{[subequation][2][44]44b}{20}}
\newlabel{su_metric}{{49a}{20}{Folding of the Real Heaven Background}{equation.49.1}{}}
\newlabel{su_metric@cref}{{[subequation][1][49]49a}{20}}
\newlabel{su_kahler1}{{49b}{21}{Folding of the Real Heaven Background}{equation.49.2}{}}
\newlabel{su_kahler1@cref}{{[subequation][2][49]49b}{21}}
\citation{biquard_2015}
\newlabel{fubini}{{52a}{22}{}{equation.52.1}{}}
\newlabel{fubini@cref}{{[subequation][1][52]52a}{22}}
\newlabel{poincare}{{52b}{22}{}{equation.52.2}{}}
\newlabel{poincare@cref}{{[subequation][2][52]52b}{22}}
\@writefile{toc}{\contentsline {section}{\numberline {IV.}Conclusions}{22}{section.4}}
\bibdata{BenBrown_Final}
\bibcite{hitchin_2015}{1}
\bibcite{biquard_2015}{2}
\bibcite{dasilva_2000}{3}
\bibcite{baykur_2006}{4}
\bibcite{ashtekar_1988}{5}
\bibcite{gibbons_2013}{6}
\bibcite{hitchin_1991}{7}
\bibcite{berger_1955}{8}
\bibcite{dancer_1994}{9}
\bibcite{eguchi_1978}{10}
\bibcite{gibbons_1978}{11}
\bibcite{hitchin_1987}{12}
\bibcite{eguchi_1980}{13}
\bibcite{capovilla_1993}{14}
\bibcite{capovilla_1989}{15}
\bibcite{cahen_1967}{16}
\bibcite{plebanski_1975}{17}
\bibcite{hooft_1976}{18}
\bibcite{capovilla_1991}{19}
\bibcite{solitons}{20}
\bibcite{hashimoto_1997}{21}
\bibcite{donaldson}{22}
\bibcite{ootsuka_1998}{23}
\bibcite{joyce_1995}{24}
\bibcite{grant_1997}{25}
\bibcite{tod_1995}{26}
\bibcite{lebrun_1991}{27}
\bibcite{park_1990}{28}
\bibcite{bakas_1995}{29}
\bibcite{ashtekar_1987}{30}
\bibcite{mason_1989}{31}
\bibcite{bryant_2004}{32}
\bibstyle{ieeetr}
