\relax 
\providecommand\hyper@newdestlabel[2]{}
\providecommand\HyperFirstAtBeginDocument{\AtBeginDocument}
\HyperFirstAtBeginDocument{\ifx\hyper@anchor\@undefined
\global\let\oldcontentsline\contentsline
\gdef\contentsline#1#2#3#4{\oldcontentsline{#1}{#2}{#3}}
\global\let\oldnewlabel\newlabel
\gdef\newlabel#1#2{\newlabelxx{#1}#2}
\gdef\newlabelxx#1#2#3#4#5#6{\oldnewlabel{#1}{{#2}{#3}}}
\AtEndDocument{\ifx\hyper@anchor\@undefined
\let\contentsline\oldcontentsline
\let\newlabel\oldnewlabel
\fi}
\fi}
\global\let\hyper@last\relax 
\gdef\HyperFirstAtBeginDocument#1{#1}
\providecommand*\HyPL@Entry[1]{}
\citation{hitchin_2015}
\citation{biquard_2015}
\citation{dasilva_2000}
\citation{baykur_2006}
\citation{hitchin_2015}
\citation{biquard_2015}
\citation{ashtekar_1988}
\citation{gibbons_2013}
\HyPL@Entry{0<</S/D>>}
\@writefile{toc}{\contentsline {section}{\numberline {I.}Introduction}{1}{section.1}}
\citation{hitchin_1987}
\citation{hitchin_1991}
\citation{dancer_1994}
\citation{hitchin_1991}
\citation{dancer_1994}
\citation{eguchi_1978}
\citation{gibbons_1978}
\citation{hitchin_1987}
\@writefile{toc}{\contentsline {section}{\numberline {II.}Background Theory}{2}{section.2}}
\@writefile{toc}{\contentsline {subsection}{\numberline {A.}Hyperk\"ahler Manifolds}{2}{subsection.2.1}}
\citation{eguchi_1980}
\citation{eguchi_1980}
\@writefile{toc}{\contentsline {subsection}{\numberline {B.}Self-Dual Gravity in Terms of the Self-Dual Spin Connection}{3}{subsection.2.2}}
\newlabel{riemann}{{II.B.}{3}{Self-Dual Gravity in Terms of the Self-Dual Spin Connection}{subsection.2.2}{}}
\newlabel{riemann@cref}{{[subsection][2][2]II.B.}{3}}
\citation{eguchi_1980}
\citation{atiyah_1978}
\citation{capovilla_1989}
\citation{capovilla_1989}
\newlabel{action}{{1}{4}{Self-Dual Gravity in Terms of the Self-Dual Spin Connection}{equation.2.1}{}}
\newlabel{action@cref}{{[equation][1][]1}{4}}
\newlabel{min_sym}{{2a}{4}{Self-Dual Gravity in Terms of the Self-Dual Spin Connection}{equation.2.1}{}}
\newlabel{min_sym@cref}{{[subequation][1][2]2a}{4}}
\newlabel{min_form}{{2b}{4}{Self-Dual Gravity in Terms of the Self-Dual Spin Connection}{equation.2.2}{}}
\newlabel{min_form@cref}{{[subequation][2][2]2b}{4}}
\newlabel{min_vol}{{2c}{4}{Self-Dual Gravity in Terms of the Self-Dual Spin Connection}{equation.2.3}{}}
\newlabel{min_vol@cref}{{[subequation][3][2]2c}{4}}
\newlabel{min_conn}{{2d}{4}{Self-Dual Gravity in Terms of the Self-Dual Spin Connection}{equation.2.4}{}}
\newlabel{min_conn@cref}{{[subequation][4][2]2d}{4}}
\citation{capovilla_1989}
\citation{capovilla_1993}
\citation{plebanski_1975}
\newlabel{prop_vol_form}{{3a}{5}{Self-Dual Gravity in Terms of the Self-Dual Spin Connection}{equation.3.1}{}}
\newlabel{prop_vol_form@cref}{{[subequation][1][3]3a}{5}}
\newlabel{cov_derivative}{{3b}{5}{Self-Dual Gravity in Terms of the Self-Dual Spin Connection}{equation.3.2}{}}
\newlabel{cov_derivative@cref}{{[subequation][2][3]3b}{5}}
\newlabel{traceless}{{3c}{5}{Self-Dual Gravity in Terms of the Self-Dual Spin Connection}{equation.3.3}{}}
\newlabel{traceless@cref}{{[subequation][3][3]3c}{5}}
\newlabel{weyl}{{3d}{5}{Self-Dual Gravity in Terms of the Self-Dual Spin Connection}{equation.3.4}{}}
\newlabel{weyl@cref}{{[subequation][4][3]3d}{5}}
\newlabel{decomposable}{{4a}{5}{Self-Dual Gravity in Terms of the Self-Dual Spin Connection}{equation.4.1}{}}
\newlabel{decomposable@cref}{{[subequation][1][4]4a}{5}}
\newlabel{orthogonal}{{4b}{5}{Self-Dual Gravity in Terms of the Self-Dual Spin Connection}{equation.4.2}{}}
\newlabel{orthogonal@cref}{{[subequation][2][4]4b}{5}}
\newlabel{frame}{{4c}{5}{Self-Dual Gravity in Terms of the Self-Dual Spin Connection}{equation.4.3}{}}
\newlabel{frame@cref}{{[subequation][3][4]4c}{5}}
\newlabel{z1z2}{{II.B.}{5}{Self-Dual Gravity in Terms of the Self-Dual Spin Connection}{equation.4.3}{}}
\newlabel{z1z2@cref}{{[subsection][2][2]II.B.}{5}}
\citation{cahen_1967}
\citation{hooft_1976}
\citation{hooft_1976}
\newlabel{z3}{{II.B.}{6}{Self-Dual Gravity in Terms of the Self-Dual Spin Connection}{equation.4.3}{}}
\newlabel{z3@cref}{{[subsection][2][2]II.B.}{6}}
\newlabel{hooft1}{{6}{6}{Self-Dual Gravity in Terms of the Self-Dual Spin Connection}{equation.0.6}{}}
\newlabel{hooft1@cref}{{[equation][6][]6}{6}}
\newlabel{hooft2}{{7a}{6}{Self-Dual Gravity in Terms of the Self-Dual Spin Connection}{equation.7.1}{}}
\newlabel{hooft2@cref}{{[subequation][1][7]7a}{6}}
\newlabel{hooft3}{{7b}{6}{Self-Dual Gravity in Terms of the Self-Dual Spin Connection}{equation.7.2}{}}
\newlabel{hooft3@cref}{{[subequation][2][7]7b}{6}}
\newlabel{projection}{{7c}{6}{Self-Dual Gravity in Terms of the Self-Dual Spin Connection}{equation.7.3}{}}
\newlabel{projection@cref}{{[subequation][3][7]7c}{6}}
\newlabel{asdhooft}{{8}{6}{Self-Dual Gravity in Terms of the Self-Dual Spin Connection}{equation.0.8}{}}
\newlabel{asdhooft@cref}{{[equation][8][]8}{6}}
\citation{eguchi_1980}
\citation{capovilla_1989}
\citation{capovilla_1993}
\citation{capovilla_1991}
\citation{capovilla_1993}
\citation{solitons}
\citation{solitons}
\citation{solitons}
\citation{ootsuka_1998}
\citation{donaldson}
\newlabel{sd_form}{{9}{8}{Self-Dual Gravity in Terms of the Self-Dual Spin Connection}{equation.0.9}{}}
\newlabel{sd_form@cref}{{[equation][9][]9}{8}}
\newlabel{hk_conditiona}{{10a}{8}{Self-Dual Gravity in Terms of the Self-Dual Spin Connection}{equation.10.1}{}}
\newlabel{hk_conditiona@cref}{{[subequation][1][10]10a}{8}}
\newlabel{hk_conditionb}{{10b}{8}{Self-Dual Gravity in Terms of the Self-Dual Spin Connection}{equation.10.2}{}}
\newlabel{hk_conditionb@cref}{{[subequation][2][10]10b}{8}}
\newlabel{cartan}{{II.B.}{8}{Self-Dual Gravity in Terms of the Self-Dual Spin Connection}{equation.10.2}{}}
\newlabel{cartan@cref}{{[subsection][2][2]II.B.}{8}}
\citation{ootsuka_1998}
\citation{ootsuka_1998}
\citation{joyce_1995}
\citation{grant_1997}
\citation{solitons}
\newlabel{half_flat}{{11}{9}{Self-Dual Gravity in Terms of the Self-Dual Spin Connection}{equation.0.11}{}}
\newlabel{half_flat@cref}{{[equation][11][]11}{9}}
\newlabel{asj}{{12}{9}{Self-Dual Gravity in Terms of the Self-Dual Spin Connection}{equation.0.12}{}}
\newlabel{asj@cref}{{[equation][12][]12}{9}}
\@writefile{toc}{\contentsline {subsection}{\numberline {C.}Examples of Hyperk\"ahler Manifolds}{9}{subsection.2.3}}
\newlabel{monopole}{{13}{9}{Gibbons-Hawking Ansatz}{equation.0.13}{}}
\newlabel{monopole@cref}{{[equation][13][]13}{9}}
\citation{solitons}
\citation{gibbons_1978}
\newlabel{gh_metric}{{14}{10}{Gibbons-Hawking Ansatz}{equation.0.14}{}}
\newlabel{gh_metric@cref}{{[equation][14][]14}{10}}
\newlabel{gh_forms}{{15}{10}{Gibbons-Hawking Ansatz}{equation.0.15}{}}
\newlabel{gh_forms@cref}{{[equation][15][]15}{10}}
\citation{tod_1995}
\citation{lebrun_1991}
\citation{park_1990}
\citation{bakas_1995}
\citation{plebanski_1975}
\citation{park_1990}
\newlabel{su_infty}{{16}{11}{Real Heaven Background}{equation.0.16}{}}
\newlabel{su_infty@cref}{{[equation][16][]16}{11}}
\newlabel{rh_metric}{{17}{11}{Real Heaven Background}{equation.0.17}{}}
\newlabel{rh_metric@cref}{{[equation][17][]17}{11}}
\newlabel{su_k1}{{18}{11}{Real Heaven Background}{equation.0.18}{}}
\newlabel{su_k1@cref}{{[equation][18][]18}{11}}
\newlabel{su_k23}{{2}{11}{Real Heaven Background}{equation.0.18}{}}
\newlabel{su_k23@cref}{{[ex][2][]2}{11}}
\citation{lebrun_1991}
\citation{lebrun_1991}
\citation{donaldson}
\citation{donaldson}
\citation{ashtekar_1987}
\citation{mason_1989}
\citation{donaldson}
\citation{biquard_2015}
\newlabel{lin_boyer}{{19}{12}{}{equation.0.19}{}}
\newlabel{lin_boyer@cref}{{[equation][19][]19}{12}}
\@writefile{toc}{\contentsline {subsection}{\numberline {D.}The Ashtekar-Jacobson-Smolin Construction of Hyperk\"ahler Manifolds}{12}{subsection.2.4}}
\newlabel{nahm}{{20}{12}{The Ashtekar-Jacobson-Smolin Construction of Hyperk\"ahler Manifolds}{equation.0.20}{}}
\newlabel{nahm@cref}{{[equation][20][]20}{12}}
\citation{donaldson}
\citation{donaldson}
\citation{ashtekar_1988}
\citation{donaldson}
\citation{hitchin_2015}
\@writefile{toc}{\contentsline {section}{\numberline {III.}Results}{14}{section.3}}
\@writefile{toc}{\contentsline {subsection}{\numberline {A.}A Canonical Example}{14}{subsection.3.1}}
\newlabel{hk_involution}{{23a}{14}{A Canonical Example}{equation.23.1}{}}
\newlabel{hk_involution@cref}{{[subequation][1][23]23a}{14}}
\newlabel{pullback_GH}{{24}{14}{A Canonical Example}{equation.0.24}{}}
\newlabel{pullback_GH@cref}{{[equation][24][]24}{14}}
\newlabel{contact}{{25}{14}{A Canonical Example}{equation.0.25}{}}
\newlabel{contact@cref}{{[equation][25][]25}{14}}
\citation{hitchin_2015}
\citation{biquard_2015}
\citation{dasilva_2000}
\citation{hitchin_1987}
\citation{hitchin_2015}
\@writefile{toc}{\contentsline {subsection}{\numberline {B.}The Definition and an Existence and Uniqueness Theorem for Hyperk\"ahler Manifolds}{15}{subsection.3.2}}
\newlabel{hk_def}{{6}{15}{\cite {hitchin_2015,biquard_2015}}{thm.6}{}}
\newlabel{hk_def@cref}{{[defn][6][]6}{15}}
\newlabel{def_involution}{{26}{15}{\cite {hitchin_2015,biquard_2015}}{equation.0.26}{}}
\newlabel{def_involution@cref}{{[equation][26][]26}{15}}
\newlabel{folded_kforms}{{27a}{16}{The Definition and an Existence and Uniqueness Theorem for Hyperk\"ahler Manifolds}{equation.27.1}{}}
\newlabel{folded_kforms@cref}{{[subequation][1][27]27a}{16}}
\newlabel{hk_vanishing1}{{28a}{16}{The Definition and an Existence and Uniqueness Theorem for Hyperk\"ahler Manifolds}{equation.28.1}{}}
\newlabel{hk_vanishing1@cref}{{[subequation][1][28]28a}{16}}
\newlabel{hk_vanishing2}{{28b}{16}{The Definition and an Existence and Uniqueness Theorem for Hyperk\"ahler Manifolds}{equation.28.2}{}}
\newlabel{hk_vanishing2@cref}{{[subequation][2][28]28b}{16}}
\citation{bryant_2004}
\citation{bryant_2004}
\citation{bryant_2004}
\citation{biquard_2015}
\newlabel{k_pullbacks}{{29}{17}{The Definition and an Existence and Uniqueness Theorem for Hyperk\"ahler Manifolds}{equation.0.29}{}}
\newlabel{k_pullbacks@cref}{{[equation][29][]29}{17}}
\newlabel{bryant}{{7}{17}{Bryant \cite {bryant_2004}}{thm.7}{}}
\newlabel{bryant@cref}{{[lem][7][]7}{17}}
\newlabel{thm_biquard}{{8}{17}{Biquard \cite {biquard_2015}}{thm.8}{}}
\newlabel{thm_biquard@cref}{{[thm][8][]8}{17}}
\citation{evans_2010}
\citation{biquard_2015}
\@writefile{toc}{\contentsline {subsection}{\numberline {C.}Contact Geometry of the Folded Gibbons-Hawking Manifold}{18}{subsection.3.3}}
\@writefile{toc}{\contentsline {subsection}{\numberline {D.}Folding the Real Heaven Background}{19}{subsection.3.4}}
\citation{tod_1995}
\citation{tod_1995}
\citation{tod_1995}
\newlabel{su_sol}{{32a}{20}{Folding the Real Heaven Background}{equation.32.1}{}}
\newlabel{su_sol@cref}{{[subequation][1][32]32a}{20}}
\newlabel{liouville}{{32b}{20}{Folding the Real Heaven Background}{equation.32.2}{}}
\newlabel{liouville@cref}{{[subequation][2][32]32b}{20}}
\newlabel{su_metric}{{35a}{21}{Folding the Real Heaven Background}{equation.35.1}{}}
\newlabel{su_metric@cref}{{[subequation][1][35]35a}{21}}
\newlabel{su_kahler1}{{35b}{21}{Folding the Real Heaven Background}{equation.35.2}{}}
\newlabel{su_kahler1@cref}{{[subequation][2][35]35b}{21}}
\newlabel{foldrh_k2k3}{{35c}{21}{Folding the Real Heaven Background}{equation.35.3}{}}
\newlabel{foldrh_k2k3@cref}{{[subequation][3][35]35c}{21}}
\citation{dasilva_2000}
\citation{baykur_2006}
\citation{biquard_2015}
\newlabel{fubini}{{37a}{22}{}{equation.37.1}{}}
\newlabel{fubini@cref}{{[subequation][1][37]37a}{22}}
\newlabel{poincare}{{37b}{22}{}{equation.37.2}{}}
\newlabel{poincare@cref}{{[subequation][2][37]37b}{22}}
\@writefile{toc}{\contentsline {section}{\numberline {IV.}Conclusions}{22}{section.4}}
\bibdata{BenBrown_Final}
\bibcite{hitchin_2015}{1}
\bibcite{biquard_2015}{2}
\bibcite{dasilva_2000}{3}
\bibcite{baykur_2006}{4}
\bibcite{ashtekar_1988}{5}
\bibcite{gibbons_2013}{6}
\bibcite{hitchin_1987}{7}
\bibcite{hitchin_1991}{8}
\bibcite{dancer_1994}{9}
\bibcite{eguchi_1978}{10}
\bibcite{gibbons_1978}{11}
\bibcite{eguchi_1980}{12}
\bibcite{atiyah_1978}{13}
\bibcite{capovilla_1989}{14}
\bibcite{capovilla_1993}{15}
\bibcite{plebanski_1975}{16}
\bibcite{cahen_1967}{17}
\bibcite{hooft_1976}{18}
\bibcite{capovilla_1991}{19}
\bibcite{solitons}{20}
\bibcite{ootsuka_1998}{21}
\bibcite{donaldson}{22}
\bibcite{joyce_1995}{23}
\bibcite{grant_1997}{24}
\bibcite{tod_1995}{25}
\bibcite{lebrun_1991}{26}
\bibcite{park_1990}{27}
\bibcite{bakas_1995}{28}
\bibcite{ashtekar_1987}{29}
\bibcite{mason_1989}{30}
\bibcite{bryant_2004}{31}
\bibcite{evans_2010}{32}
\bibstyle{ieeetr}
