\BOOKMARK [1][-]{section.1}{Introduction}{}% 1
\BOOKMARK [1][-]{section.2}{Background\040Theory}{}% 2
\BOOKMARK [2][-]{subsection.2.1}{Hyperkähler Manifolds}{section.2}% 3
\BOOKMARK [2][-]{subsection.2.2}{Self-Dual\040Gravity\040in\040Terms\040of\040the\040Self-Dual\040Spin\040Connection}{section.2}% 4
\BOOKMARK [2][-]{subsection.2.3}{Examples of Hyperkähler Manifolds}{section.2}% 5
\BOOKMARK [2][-]{subsection.2.4}{The Ashtekar-Jacobson-Smolin Construction of Hyperkähler Manifolds}{section.2}% 6
\BOOKMARK [1][-]{section.3}{Results}{}% 7
\BOOKMARK [2][-]{subsection.3.1}{A\040Canonical\040Example}{section.3}% 8
\BOOKMARK [2][-]{subsection.3.2}{The Definition and an Existence and Uniqueness Theorem for Hyperkähler Manifolds}{section.3}% 9
\BOOKMARK [2][-]{subsection.3.3}{Contact\040Geometry\040of\040the\040Folded\040Gibbons-Hawking\040Manifold}{section.3}% 10
\BOOKMARK [2][-]{subsection.3.4}{Folding\040the\040Real\040Heaven\040Background}{section.3}% 11
\BOOKMARK [1][-]{section.4}{Conclusions}{}% 12
