\relax 
\citation{Paper_1}
\citation{Paper_1}
\citation{Paper_2}
\citation{Paper_3}
\@writefile{toc}{\contentsline {section}{\numberline {I.}About this Document}{1}}
\@writefile{lof}{\contentsline {figure}{\numberline {1}{\ignorespaces \relax \fontsize  {10.95}{13.6}\selectfont  \abovedisplayskip 11\p@ plus3\p@ minus6\p@ \abovedisplayshortskip \z@ plus3\p@ \belowdisplayshortskip 6.5\p@ plus3.5\p@ minus3\p@ \def \leftmargin \leftmargini \parsep 5\p@ plus2.5\p@ minus\p@ \topsep 10\p@ plus4\p@ minus6\p@ \itemsep 5\p@ plus2.5\p@ minus\p@ {\leftmargin \leftmargini \topsep 9\p@ plus3\p@ minus5\p@ \parsep 4.5\p@ plus2\p@ minus\p@ \itemsep \parsep }\belowdisplayskip \abovedisplayskip This is just an example for a wide figure. If you want to use *.jpg or *.pdf files for your figures, you need to compile with ``pdflatex''.}}{2}}
\newlabel{fig: fig_2}{{1}{2}}
\@writefile{toc}{\contentsline {section}{\numberline {II.}Introduction}{2}}
\@writefile{toc}{\contentsline {section}{\numberline {III.}Theory}{2}}
\@writefile{toc}{\contentsline {subsection}{\numberline {A.}The Palatini Action and Self-Dual Gravity}{2}}
\@writefile{toc}{\contentsline {section}{\numberline {IV.}Results}{2}}
\@writefile{toc}{\contentsline {subsection}{\numberline {A.}Figures}{2}}
\bibcite{Paper_1}{1}
\bibcite{Paper_2}{2}
\@writefile{toc}{\contentsline {subsection}{\numberline {B.}More on Figures}{3}}
\@writefile{toc}{\contentsline {subsection}{\numberline {C.}Final Note on Figures}{3}}
\@writefile{toc}{\contentsline {subsection}{\numberline {D.}Tables}{3}}
\newlabel{table}{{IV.D.}{3}}
\@writefile{toc}{\contentsline {section}{\numberline {V.}Conclusions}{3}}
\@writefile{lot}{\contentsline {table}{\numberline {1}{\ignorespaces An example table}}{3}}
\newlabel{tab: tab_1}{{1}{3}}
\bibcite{Paper_3}{3}
