\relax 
\citation{Paper_1}
\citation{Paper_1,Paper_2,Paper_3}
\newlabel{FirstPage}{{}{1}{}{}{}}
\@writefile{toc}{\contentsline {title}{Final Year Physics Project – Final Report}{1}{}}
\@writefile{toc}{\contentsline {abstract}{Abstract}{1}{}}
\@writefile{toc}{\contentsline {section}{\numberline {I}About this Document}{1}{}}
\@writefile{toc}{\contentsline {section}{\numberline {II}Introduction}{1}{}}
\@writefile{toc}{\contentsline {section}{\numberline {III}Theory}{2}{}}
\newlabel{eq: eq_2}{{4}{2}{}{}{}}
\@writefile{lof}{\contentsline {figure}{\numberline {1}{\ignorespaces \relax \fontsize  {10.95}{14.5pt}\selectfont  \abovedisplayskip 8\p@ plus3\p@ minus6\p@ \belowdisplayskip \abovedisplayskip \abovedisplayshortskip \z@ plus3\p@ \belowdisplayshortskip 6.5\p@ plus3.5\p@ minus3\p@ \def \leftmargin \leftmargini \parsep 5\p@ plus2.5\p@ minus\p@ \topsep 10\p@ plus4\p@ minus6\p@ \itemsep 5\p@ plus2.5\p@ minus\p@ {\leftmargin \leftmargini \topsep 9\p@ plus3\p@ minus5\p@ \parsep 4.5\p@ plus2\p@ minus\p@ \itemsep \parsep }This is just an example for a wide figure. If you want to use *.jpg or *.pdf files for your figures, you need to compile with ``pdflatex''.}}{3}{}}
\newlabel{fig: fig_2}{{1}{3}{}{}{}}
\@writefile{toc}{\contentsline {section}{\numberline {IV}Results}{3}{}}
\@writefile{toc}{\contentsline {subsection}{\numberline {A}Figures}{3}{}}
\@writefile{toc}{\contentsline {subsection}{\numberline {B}More on Figures}{3}{}}
\@writefile{toc}{\contentsline {subsection}{\numberline {C}Final Note on Figures}{3}{}}
\newlabel{fig: fig_1}{{IV\tmspace  +\thinmuskip {.1667em}A}{3}{}{}{}}
\bibcite{Paper_1}{{1}{}{{}}{{}}}
\bibcite{Paper_2}{{2}{}{{}}{{}}}
\bibcite{Paper_3}{{3}{}{{}}{{}}}
\bibdata{Revtex_Template_2016Notes}
\bibstyle{apsrev4-1}
\citation{REVTEX41Control}
\citation{apsrev41Control}
\providecommand\NAT@force@numbers{}\NAT@force@numbers
\@writefile{lot}{\contentsline {table}{\numberline {I}{\ignorespaces An example table}}{4}{}}
\newlabel{tab: tab_1}{{I}{4}{}{}{}}
\@writefile{toc}{\contentsline {subsection}{\numberline {D}Tables}{4}{}}
\@writefile{toc}{\contentsline {section}{\numberline {V}Conclusions}{4}{}}
\@writefile{toc}{\contentsline {section}{\numberline {}References}{4}{}}
\newlabel{LastBibItem}{{3}{4}{}{}{}}
\newlabel{LastPage}{{}{4}{}{}{}}
