\relax 
\providecommand\hyper@newdestlabel[2]{}
\providecommand\HyperFirstAtBeginDocument{\AtBeginDocument}
\HyperFirstAtBeginDocument{\ifx\hyper@anchor\@undefined
\global\let\oldcontentsline\contentsline
\gdef\contentsline#1#2#3#4{\oldcontentsline{#1}{#2}{#3}}
\global\let\oldnewlabel\newlabel
\gdef\newlabel#1#2{\newlabelxx{#1}#2}
\gdef\newlabelxx#1#2#3#4#5#6{\oldnewlabel{#1}{{#2}{#3}}}
\AtEndDocument{\ifx\hyper@anchor\@undefined
\let\contentsline\oldcontentsline
\let\newlabel\oldnewlabel
\fi}
\fi}
\global\let\hyper@last\relax 
\gdef\HyperFirstAtBeginDocument#1{#1}
\providecommand*\HyPL@Entry[1]{}
\citation{hitchin_2015}
\citation{biquard_2015}
\citation{dasilva_2000}
\citation{baykur_2006}
\citation{hitchin_2015}
\citation{biquard_2015}
\citation{ashtekar_1988}
\citation{gibbons_2013}
\HyPL@Entry{0<</S/D>>}
\@writefile{toc}{\contentsline {section}{\numberline {I.}Introduction}{1}{section.1}}
\@writefile{toc}{\contentsline {subsection}{\numberline {A.}Aims and Objectives}{1}{subsection.1.1}}
\citation{ashtekar_1987}
\citation{biquard_2015}
\citation{donaldson}
\@writefile{toc}{\contentsline {subsection}{\numberline {B.}Background Theory}{2}{subsection.1.2}}
\newlabel{cartan}{{2}{2}{Background Theory}{equation.1.2}{}}
\citation{Hitchin_1987}
\citation{thooft_1976}
\newlabel{hitchin_lemma}{{3}{4}{Hitchin \cite {Hitchin_1987}}{thm.1.3}{}}
\citation{ashtekar_1988}
\citation{hashimoto_1997}
\newlabel{thooft}{{3a}{5}{Background Theory}{equation.1.3a}{}}
\citation{robinson_1988}
\citation{ashtekar_1987}
\citation{ashtekar_1988}
\citation{gibbons_1978}
\newlabel{half_flat}{{7}{6}{Background Theory}{equation.1.7}{}}
\newlabel{volume_pres}{{8a}{6}{Background Theory}{equation.1.8a}{}}
\newlabel{half_flat2}{{8b}{6}{Background Theory}{equation.1.8b}{}}
\citation{hitchin_2015}
\citation{biquard_2015}
\@writefile{toc}{\contentsline {section}{\numberline {II.}Summary of work done in Term 1}{7}{section.2}}
\citation{biquard_2015}
\citation{hashimoto_1997}
\bibdata{BenBrown_Interim}
\bibcite{hitchin_2015}{1}
\bibcite{biquard_2015}{2}
\bibcite{dasilva_2000}{3}
\bibcite{baykur_2006}{4}
\@writefile{toc}{\contentsline {section}{\numberline {III.}Plan of Work for Term 2}{8}{section.3}}
\bibcite{ashtekar_1988}{5}
\bibcite{gibbons_2013}{6}
\bibcite{ashtekar_1987}{7}
\bibcite{donaldson}{8}
\bibcite{Hitchin_1987}{9}
\bibcite{thooft_1976}{10}
\bibcite{hashimoto_1997}{11}
\bibcite{robinson_1988}{12}
\bibcite{gibbons_1978}{13}
\bibstyle{ieeetr}
