\relax 
\providecommand\hyper@newdestlabel[2]{}
\providecommand\HyperFirstAtBeginDocument{\AtBeginDocument}
\HyperFirstAtBeginDocument{\ifx\hyper@anchor\@undefined
\global\let\oldcontentsline\contentsline
\gdef\contentsline#1#2#3#4{\oldcontentsline{#1}{#2}{#3}}
\global\let\oldnewlabel\newlabel
\gdef\newlabel#1#2{\newlabelxx{#1}#2}
\gdef\newlabelxx#1#2#3#4#5#6{\oldnewlabel{#1}{{#2}{#3}}}
\AtEndDocument{\ifx\hyper@anchor\@undefined
\let\contentsline\oldcontentsline
\let\newlabel\oldnewlabel
\fi}
\fi}
\global\let\hyper@last\relax 
\gdef\HyperFirstAtBeginDocument#1{#1}
\providecommand*\HyPL@Entry[1]{}
\citation{hitchin_2015}
\citation{biquard_2015}
\citation{evanescent_2016}
\HyPL@Entry{0<</S/D>>}
\@writefile{toc}{\contentsline {section}{\numberline {I.}Introduction}{1}{section.1}}
\@writefile{toc}{\contentsline {subsection}{\numberline {A.}Aims and Objectives}{1}{subsection.1.1}}
\newlabel{fold_gh_metric}{{1}{1}{Aims and Objectives}{equation.1.1}{}}
\newlabel{parity}{{3}{1}{Aims and Objectives}{equation.1.3}{}}
\citation{biquard_2015}
\citation{evanescent_2016}
\citation{thooft_1976}
\@writefile{toc}{\contentsline {subsection}{\numberline {B.}Week 9 Lecture}{3}{subsection.1.2}}
\newlabel{three_symp}{{8a}{3}{Week 9 Lecture}{equation.1.8a}{}}
\newlabel{thooft}{{10a}{3}{Week 9 Lecture}{equation.1.10a}{}}
\newlabel{complex_structure}{{11}{3}{Week 9 Lecture}{equation.1.11}{}}
\citation{ashtekar_1988}
\newlabel{cartan}{{14}{5}{Week 9 Lecture}{equation.1.14}{}}
\newlabel{half_flat}{{I.B.}{5}{Week 9 Lecture}{equation.1.14}{}}
\newlabel{defn_half_flat}{{6}{5}{}{thm.1.6}{}}
\newlabel{rmk_half_flat}{{7}{5}{}{thm.1.7}{}}
\citation{hashimoto_1997}
\citation{gibbons_1978}
\citation{donaldson}
\newlabel{gh_half}{{17}{7}{Gibbons-Hawking Metric}{equation.1.17}{}}
\newlabel{gh_metric}{{I.B.}{7}{Week 9 Lecture}{equation.1.17}{}}
\newlabel{monopole}{{18}{7}{Week 9 Lecture}{equation.1.18}{}}
\newlabel{nahm}{{20}{7}{}{equation.1.20}{}}
\citation{hitchin_1987}
\citation{ootsuka_1998}
\citation{plebanski_1975}
\citation{biquard_2015}
\newlabel{key}{{25}{11}{Week 9 Lecture}{equation.1.25}{}}
\newlabel{HK_metric}{{26}{11}{Week 9 Lecture}{equation.1.26}{}}
\newlabel{key}{{27}{11}{Week 9 Lecture}{equation.1.27}{}}
\bibdata{BenBrown_Interim}
\bibcite{hitchin_2015}{1}
\bibcite{biquard_2015}{2}
\bibcite{thooft_1976}{3}
\bibcite{ashtekar_1988}{4}
\bibcite{hashimoto_1997}{5}
\bibcite{gibbons_1978}{6}
\bibcite{donaldson}{7}
\bibcite{hitchin_1987}{8}
\@writefile{toc}{\contentsline {section}{\numberline {II.}Background Theory}{13}{section.2}}
\@writefile{toc}{\contentsline {section}{\numberline {III.}Work Done in Term 1}{13}{section.3}}
\@writefile{toc}{\contentsline {section}{\numberline {IV.}Aim for Term 2}{13}{section.4}}
\bibcite{ootsuka_1998}{9}
\bibcite{plebanski_1975}{10}
\bibstyle{ieeetr}
