\relax 
\providecommand\hyper@newdestlabel[2]{}
\providecommand\HyperFirstAtBeginDocument{\AtBeginDocument}
\HyperFirstAtBeginDocument{\ifx\hyper@anchor\@undefined
\global\let\oldcontentsline\contentsline
\gdef\contentsline#1#2#3#4{\oldcontentsline{#1}{#2}{#3}}
\global\let\oldnewlabel\newlabel
\gdef\newlabel#1#2{\newlabelxx{#1}#2}
\gdef\newlabelxx#1#2#3#4#5#6{\oldnewlabel{#1}{{#2}{#3}}}
\AtEndDocument{\ifx\hyper@anchor\@undefined
\let\contentsline\oldcontentsline
\let\newlabel\oldnewlabel
\fi}
\fi}
\global\let\hyper@last\relax 
\gdef\HyperFirstAtBeginDocument#1{#1}
\providecommand\HyField@AuxAddToFields[1]{}
\providecommand\HyField@AuxAddToCoFields[2]{}
\@input{titlepage.aux}
\@input{contents.aux}
\citation{Silverman_2009}
\citation{Hart_1977}
\@writefile{toc}{\contentsline {section}{\numberline {1}Introduction}{1}{section.1}}
\@writefile{toc}{\contentsline {section}{\numberline {2}Elliptic Curves over $\mathbb  {C}$}{1}{section.2}}
\@writefile{toc}{\contentsline {subsection}{\numberline {2.1}The Theorem of Riemann-Roch}{1}{subsection.2.1}}
\citation{Silverman_2009}
\citation{Hart_1977}
\newlabel{RR_prop_1}{{2.2}{2}{\cite {Hart_1977}}{prop.2.2}{}}
\citation{Hart_1977}
\citation{Hart_1977}
\citation{Silverman_2009}
\citation{Hart_1977}
\newlabel{riemann_roch}{{2.3}{3}{Riemann-Roch, \cite {Hart_1977}}{prop.2.3}{}}
\newlabel{riemann_roch_cor}{{2.4}{3}{\cite {Hart_1977}}{prop.2.4}{}}
\@writefile{toc}{\contentsline {subsection}{\numberline {2.2}Elliptic Curves as Complex Tori}{3}{subsection.2.2}}
\newlabel{legendre}{{1}{3}{\cite {Hart_1977}}{equation.2.1}{}}
\citation{Silverman_2009}
\newlabel{linear_dependence}{{2}{4}{Elliptic Curves as Complex Tori}{equation.2.2}{}}
\citation{Silverman_2009}
\citation{Silverman_2009}
\citation{Silverman_2009}
\citation{Silverman_2009}
\citation{Silverman_2009}
\@writefile{toc}{\contentsline {subsection}{\numberline {2.3}Complex Tori as Elliptic Curves}{6}{subsection.2.3}}
\citation{Silverman_2009}
\citation{Silverman_2009}
\citation{Silverman_2009}
\newlabel{weierstrass_legendre}{{3}{7}{\cite {Silverman_2009}}{Item.7}{}}
\citation{Silverman_2009}
\citation{Dolgachev_1997}
\newlabel{torsion_prop}{{2.14}{9}{}{prop.2.14}{}}
\@writefile{toc}{\contentsline {section}{\numberline {3}Theta Functions}{9}{section.3}}
\citation{Mumford_1983}
\citation{Dolgachev_1997}
\newlabel{recursive}{{4}{11}{Theta Functions}{equation.3.4}{}}
\newlabel{theta_factor}{{5}{11}{Theta Functions}{equation.3.5}{}}
\citation{Dolgachev_1997}
\citation{Mumford_1983}
\citation{Mumford_1983}
\citation{Mumford_1983}
\newlabel{big_theta}{{6}{12}{Theta Functions}{equation.3.6}{}}
\newlabel{theta_basis_one}{{3.2}{12}{\cite {Dolgachev_1997}}{prop.3.2}{}}
\newlabel{theta_weight_n}{{7}{12}{Theta Functions}{equation.3.7}{}}
\newlabel{theta_basis}{{3.4}{12}{\cite {Mumford_1983}}{prop.3.4}{}}
\citation{Dolgachev_1997}
\citation{Dolgachev_1997}
\newlabel{zero_point}{{3.6}{13}{\cite {Dolgachev_1997}}{prop.3.6}{}}
\citation{Dolgachev_1997}
\citation{Dolgachev_1997}
\citation{Mumford_1983}
\newlabel{cor_zeros}{{3.7}{14}{\cite {Dolgachev_1997}}{prop.3.7}{}}
\newlabel{zeros}{{10}{14}{\cite {Dolgachev_1997}}{equation.3.10}{}}
\citation{Mumford_1974}
\@writefile{toc}{\contentsline {section}{\numberline {4}Projectively Embedded Elliptic Curves}{15}{section.4}}
\newlabel{embeddings}{{4}{15}{Projectively Embedded Elliptic Curves}{section.4}{}}
\citation{Krazer_1890}
\citation{Tracy_1985}
\citation{KF_1892}
\citation{Hurtwiz_1886}
\citation{Bianchi_1880}
\citation{Tracy_1985}
\citation{Hulek_1983}
\citation{KF_1892}
\citation{Bianchi_1880}
\citation{Hurtwiz_1886}
\newlabel{product_lemma}{{4.1}{16}{\cite {Krazer_1890,Tracy_1985}}{prop.4.1}{}}
\newlabel{product_identity}{{15}{16}{\cite {Krazer_1890,Tracy_1985}}{equation.4.15}{}}
\@writefile{toc}{\contentsline {subsection}{\numberline {4.1}The Hesse Cubic}{16}{subsection.4.1}}
\newlabel{hesse_zeros}{{16}{17}{The Hesse Cubic}{equation.4.16}{}}
\@writefile{lof}{\contentsline {figure}{\numberline {1}{\ignorespaces The zeros of $x_i(z)$ for $i=0,1,2$ in the fundamental parallelogram.}}{17}{figure.1}}
\newlabel{fig:lattice}{{1}{17}{The zeros of $x_i(z)$ for $i=0,1,2$ in the fundamental parallelogram}{figure.1}{}}
\newlabel{hesse_transformation}{{17}{17}{The Hesse Cubic}{equation.4.17}{}}
\newlabel{hesse_heisenberg}{{18}{17}{The Hesse Cubic}{equation.4.18}{}}
\citation{Tracy_1985}
\citation{Dolgachev_2006}
\citation{Dolgachev_1997}
\citation{KF_1892}
\citation{Bianchi_1880}
\citation{Hurtwiz_1886}
\citation{Hulek_1983}
\citation{Tracy_1985}
\newlabel{hesse_involution}{{19}{18}{The Hesse Cubic}{equation.4.19}{}}
\newlabel{hesse_pencil}{{20}{18}{The Hesse Cubic}{equation.4.20}{}}
\@writefile{toc}{\contentsline {subsection}{\numberline {4.2}The General Case for $n > 3$}{18}{subsection.4.2}}
\citation{Krazer_1890}
\citation{Tracy_1985}
\newlabel{zero_point_sum}{{21}{19}{The General Case for $n > 3$}{equation.4.21}{}}
\newlabel{general_n_basis}{{22}{19}{The General Case for $n > 3$}{equation.4.22}{}}
\newlabel{quadric_existence_theorem}{{4.3}{19}{}{prop.4.3}{}}
\newlabel{riemann_quartic}{{23}{20}{The General Case for $n > 3$}{equation.4.23}{}}
\newlabel{riemann_quartic_general_basis}{{25}{20}{The General Case for $n > 3$}{equation.4.25}{}}
\newlabel{quadric}{{26}{20}{The General Case for $n > 3$}{equation.4.26}{}}
\citation{KF_1892}
\citation{Velu_1978}
\citation{Gross_1996}
\newlabel{modular_coefficients}{{27}{21}{The General Case for $n > 3$}{equation.4.27}{}}
\newlabel{quadric_sum}{{28}{21}{The General Case for $n > 3$}{equation.4.28}{}}
\newlabel{odd_n_combination}{{29}{21}{The General Case for $n > 3$}{equation.4.29}{}}
\newlabel{even_n_combination}{{30}{21}{The General Case for $n > 3$}{equation.4.30}{}}
\citation{Hulek_1983}
\citation{Mumford_1966}
\citation{BHM_1985}
\newlabel{gross_matrix}{{31}{22}{The General Case for $n > 3$}{equation.4.31}{}}
\@writefile{toc}{\contentsline {subsection}{\numberline {4.3}The Fermat Quartic}{22}{subsection.4.3}}
\newlabel{jacobi_lin_comb}{{32}{22}{The Fermat Quartic}{equation.4.32}{}}
\newlabel{order_4_quadrics}{{34}{22}{The Fermat Quartic}{equation.4.34}{}}
\citation{BHM_1985}
\@writefile{toc}{\contentsline {subsection}{\numberline {4.4}The Bianchi Quintic}{23}{subsection.4.4}}
\newlabel{bianchi_quadrics}{{35}{23}{The Bianchi Quintic}{equation.4.35}{}}
\newlabel{bianchi_modular}{{36}{23}{The Bianchi Quintic}{equation.4.36}{}}
\newlabel{bianchi_quadric_intersection}{{37}{23}{The Bianchi Quintic}{equation.4.37}{}}
\citation{Bianchi_1880}
\citation{Hulek_1983}
\citation{Hulek_1983}
\@writefile{toc}{\contentsline {section}{\numberline {5}The Heisenberg Group and Abstract Configurations}{24}{section.5}}
\@writefile{toc}{\contentsline {subsection}{\numberline {5.1}The Heisenberg Group and Schr{\"o}dinger Representation}{24}{subsection.5.1}}
\citation{Hulek_1983}
\newlabel{commutator}{{38}{25}{}{equation.5.38}{}}
\@writefile{toc}{\contentsline {subsection}{\numberline {5.2}Abstract Configurations}{25}{subsection.5.2}}
\citation{Hulek_1983}
\newlabel{invariant_hyperplanes}{{5.3}{26}{\cite {Hulek_1983}}{prop.5.3}{}}
\citation{Hulek_1983}
\citation{Hulek_1983}
\newlabel{subspace_1}{{39}{28}{Abstract Configurations}{equation.5.39}{}}
\newlabel{subspace_2}{{40}{28}{Abstract Configurations}{equation.5.40}{}}
\citation{Hulek_1983}
\citation{Nieto_1992}
\citation{Mumford_1966}
\@writefile{toc}{\contentsline {subsection}{\numberline {5.3}The Normaliser of the Heisenberg Group}{29}{subsection.5.3}}
\newlabel{schrodinger}{{5.8}{29}{Discrete Theorem of Mumford-Stone-von Neumann, \cite {Mumford_1966}}{prop.5.8}{}}
\citation{Nieto_1992}
\citation{Dolgachev_2006}
\@writefile{toc}{\contentsline {subsection}{\numberline {5.4}Examples}{30}{subsection.5.4}}
\@writefile{toc}{\contentsline {subsubsection}{\numberline {5.4.1}The Hesse Pencil}{30}{subsubsection.5.4.1}}
\newlabel{Hesse_example}{{5.4.1}{30}{The Hesse Pencil}{subsubsection.5.4.1}{}}
\citation{Hulek_1983}
\@writefile{lot}{\contentsline {table}{\numberline {1}{\ignorespaces The inflection lines and the inflection points in the Hesse configuration.}}{31}{table.1}}
\newlabel{tab:Hesseconfig}{{1}{31}{The inflection lines and the inflection points in the Hesse configuration}{table.1}{}}
\newlabel{vertices}{{42}{31}{The Hesse Pencil}{equation.5.42}{}}
\citation{Bianchi_1880}
\citation{Horrocks_1973}
\newlabel{hesse_transform}{{43}{32}{The Hesse Pencil}{equation.5.43}{}}
\citation{Dolgachev_2006}
\citation{Barth_1985}
\citation{Dolgachev_2006}
\citation{Dolgachev_2006}
\citation{Dolgachev_2006}
\citation{Kodaira_1963}
\newlabel{shioda}{{5.10}{33}{\cite {Dolgachev_2006}}{prop.5.10}{}}
\citation{Dolgachev_2006}
\citation{Barth_1985}
\citation{Kodaira_1963}
\@writefile{toc}{\contentsline {subsubsection}{\numberline {5.4.2}The Bianchi Quintic}{34}{subsubsection.5.4.2}}
\citation{Horrocks_1973}
\citation{Bianchi_1880}
\citation{Horrocks_1973}
\citation{klein2007lectures}
\citation{Gross_1996}
\citation{Gross_1996}
\citation{Barth_1985}
\@writefile{toc}{\contentsline {section}{\numberline {6}Conclusion}{36}{section.6}}
\bibdata{Bibliography}
\bibcite{Dolgachev_2006}{AD06}
\bibcite{Barth_1985}{BH85}
\bibcite{BHM_1985}{BHM84}
\bibcite{Bianchi_1880}{{Bia}80}
\bibcite{Dolgachev_1997}{{Dol}97}
\bibcite{Gross_1996}{GP96}
\bibcite{Hart_1977}{{Har}77}
\bibcite{Horrocks_1973}{HM73}
\bibcite{Hulek_1983}{Hul86}
\bibcite{Hurtwiz_1886}{{Hur}86}
\bibcite{KF_1892}{{Kle}92}
\bibcite{klein2007lectures}{KM07}
\bibcite{Kodaira_1963}{{Kod}63}
\bibcite{Krazer_1890}{{Kra}70}
\bibcite{Mumford_1966}{{Mum}66}
\bibcite{Mumford_1974}{Mum74}
\bibcite{Mumford_1983}{{Mum}83}
\bibcite{Nieto_1992}{{Nie}92}
\bibcite{Silverman_2009}{{Sil}09}
\bibcite{Tracy_1985}{{Tra}85}
\bibcite{Velu_1978}{V{\'e}l78}
\bibstyle{alpha}
