\begin{thebibliography}{1}

\bibitem{10.2307/20403069}
S.~M\"{u}hlbauer \textit{et al.}
\newblock Skyrmion lattice in a chiral magnet.
\newblock {\em Science}, \textbf{323}:915, (2009).

\bibitem{Soccer}
K.~Everschor-Sitte \textit{et al.}
\newblock {Real-space Berry phases: Skyrmion soccer}.
\newblock {\em J. Appl. Phys.}, \textbf{115}:172602, (2014).

\bibitem{Morinari:2010wg}
T.~Morinari.
\newblock {Vortex Created by Skyrmion Spin Texture under Magnetic Field}.
\newblock {\em ArXiv e-prints}, (2010).

\bibitem{Berry45}
M.~V. Berry.
\newblock Quantal phase factors accompanying adiabatic changes.
\newblock {\em Proc. R. Soc. A}, \textbf{392}:45, (1984).

\end{thebibliography}
