\relax 
\citation{10.2307/20403069}
\citation{Soccer}
\citation{Soccer}
\citation{Soccer}
\citation{*}
\bibstyle{unsrt}
\bibdata{skyrmion}
\bibcite{10.2307/20403069}{1}
\bibcite{Soccer}{2}
\bibcite{Morinari:2010wg}{3}
\bibcite{Berry45}{4}
\citation{Morinari:2010wg}
\citation{Soccer}
\citation{Soccer}
\citation{Soccer}
\citation{Soccer}
\citation{Morinari:2010wg}
\citation{Berry45}
\citation{Morinari:2010wg}
\pgfsyspdfmark {pgfid1}{1799790}{816750}
\@writefile{lof}{\contentsline {figure}{\numberline {1}{\ignorespaces centering}}{2}}
\@writefile{lof}{\contentsline {figure}{\numberline {2}{\ignorespaces centering}}{2}}
