This is BibTeX, Version 0.99d (TeX Live 2014/W32TeX)
Capacity: max_strings=35307, hash_size=35307, hash_prime=30011
The top-level auxiliary file: benjamin_brown_skyrmion2.aux
The style file: unsrt.bst
Database file #1: skyrmion.bib
Name 1 in "\textit{et al.}, S. M\"{u}hlbauer," has a comma at the end for entry 10.2307/20403069
while executing---line 944 of file unsrt.bst
Name 1 in "\textit{et al.}, K. Everschor-Sitte," has a comma at the end for entry Soccer
while executing---line 944 of file unsrt.bst
Name 1 in "T. Morinari," has a comma at the end for entry Morinari:2010wg
while executing---line 944 of file unsrt.bst
You've used 4 entries,
            1791 wiz_defined-function locations,
            475 strings with 4049 characters,
and the built_in function-call counts, 671 in all, are:
= -- 58
> -- 16
< -- 0
+ -- 8
- -- 4
* -- 34
:= -- 122
add.period$ -- 12
call.type$ -- 4
change.case$ -- 4
chr.to.int$ -- 0
cite$ -- 4
duplicate$ -- 35
empty$ -- 74
format.name$ -- 4
if$ -- 144
int.to.chr$ -- 0
int.to.str$ -- 4
missing$ -- 4
newline$ -- 23
num.names$ -- 4
pop$ -- 6
preamble$ -- 1
purify$ -- 0
quote$ -- 0
skip$ -- 12
stack$ -- 0
substring$ -- 33
swap$ -- 4
text.length$ -- 0
text.prefix$ -- 0
top$ -- 0
type$ -- 0
warning$ -- 0
while$ -- 7
width$ -- 5
write$ -- 45
(There were 3 error messages)
